loop.vcd
$date
	Fri Sep 09 17:59:02 2016
$end
$version
	ModelSim Version 10.4d
$end
$timescale
	1ps
$end

$scope module loop $end
$var reg 1 ! sda $end
$var reg 1 " scl $end
$upscope $end
$enddefinitions $end
#0
$dumpvars
1!
0"
$end
#5
1"
#10
0!
0"
#15
1"
#20
1!
0"
#25
1"
#30
0"
#35
1"
#40
0!
0"
#45
1"
#50
1!
0"
#55
1"
#60
0"
#65
1"
#70
0"
#75
1"
#80
0!
0"
#85
1"
#90
0"
#95
1"
#100
1!
0"
#105
1"
#110
0!
0"
#115
1"
#120
0"
#125
1"
#130
1!
0"
#135
1"
#140
0"
#145
1"
#150
0!
0"
#155
1"
#160
1!
0"
#165
1"
#170
x!
0"
#175
1"
#180
0"
#185
1"
#190
0"
#195
1"
#200
0"
