test2.vcd
$date
	Tue Jul 12 15:29:37 2016
$end
$version
	ModelSim Version 10.4d
$end
$timescale
	1ps
$end

$scope module FSM $end
$var parameter 32 ! test $end
$var reg 1 " i1 $end
$var reg 1 # i2 $end
$var reg 1 $ i3 $end
$var reg 1 % i4 $end
$upscope $end
$enddefinitions $end
#0
$dumpvars
0"
0#
x$
x%
b1000 !
$end
#200
START
1$
#700
1"
1%
#900
STOP
0$
#1300
1#
0"
0%
...
#1800
1#
1"
1$
1%
#2300
START
1$
#2800
1"
1%
#3100
STOP
0$
0%
...
#3400
START
1$
#3600
0#
1$
#3800
STOP
1"
1%
#4100
0$