unid.vcd
$date
	Tue Oct 18 16:59:24 2016
$end
$version
	ModelSim Version 10.4d
$end
$timescale
	1ps
$end

$scope module unid $end
$var reg 1 ! sda $end
$var reg 1 " scl $end
$upscope $end
$enddefinitions $end
#0
$dumpvars
x!
0"
$end
#5
1"
#7
0!
#10
1!
0"
#15
1"
#20
0!
0"
#25
1"
#30
0"
#35
1"
#40
1!
0"
#45
1"
#50
x!
x"
#80
1!
0"
#85
1"
#90
0"
#95
1"
#100
0!
0"
#105
1"
#110
x!
x"
#150
1!
0"
#155
1"
#160
0"
#165
1"
#170
0!
0"
#175
1"
#180
1!
0"
#185
1"
#190
0"
#195
1"
#200
0"
#205
1"
#210
0!
0"
#215
1"
#220
1!
0"
#225
1"
#230
0"
#235
1"
#240
0!
0"
#245
1"
#250
0"
#255
1"
#260
0"
#265
1"
#270
1!
0"
#275
1"
#280
0!
0"
#285
1"
#287
1!
#290
0"
#295
1"
#300
0"
