unid.vcd
$date
	Tue Oct 25 13:40:22 2016
$end
$version
	ModelSim Version 10.4d
$end
$timescale
	1ps
$end

$scope module unid $end
$var reg 1 ! sda $end
$var reg 1 " scl $end
$upscope $end
$enddefinitions $end
#0
$dumpvars
1!
1"
$end
#3
0!
#6
0"
#9
x!
#12
x"
#18
0"
#21
0!
#24
1"
#30
1!
#33
0"
#39
1"